[
    {
        "word": "Banana",
        "valid": false,
        "reason": "Banana is not a personal name"
    },
    {
        "word": "Antônio",
        "valid": false,
        "reason": "Antônio contains special characters"
    },
    {
        "word": "Antônio",
        "valid": false,
        "reason": "Antônio contains special characters 2"
    },
    {
        "word": "sss",
        "valid": false,
        "reason": null
    }
]